Statistical Distributions and Simulation
…
```
## [1] 0.003859282
```

---
class: inverse, middle, center
# Making fake data
---
# Simulating a dataset

<code class ='r hljs remark-code'>fake_data <- tibble(<br>&nbsp;&nbsp;names = charlatan::ch_name(100),<br>&nbsp;&nbsp;height = <span style='background-color:#ffff7f'>rnorm</span>(100, mean = 67, sd = 3),<br>&nbsp;&nbsp;age = <span style='background-color:#ffff7f'>runif</span>(100, min = 15, max = 75),<br>&nbsp;&nbsp;measure = <span style='background-color:#ffff7f'>rbinom</span>(100, size = 1, prob = 0.6)<br>) %>%<br>&nbsp;&nbsp;mutate(<br>&nbsp;&nbsp;&nbsp;&nbsp;supports_measure_A = ifelse(measure == 1, "yes", "no")<br>&nbsp;&nbsp;)<br><br>fake_data</code>

```

## # A tibble: 100 x 5
##    names              height   age measure supports_measure_A
##    <chr>               <dbl> <dbl>   <int> <chr>             
##  1 Dexter Erdman        70.3  16.5       0 no                
##  2 Jaxson Grant         65.4  40.5       1 yes               
##  3 Jaliyah Abshire      62.8  60.9       1 yes               
##  4 Landyn Hand-Daniel   63.3  63.9       1 yes               
##  5 Shepherd Little      71.4  64.3       0 no                
##  6 Hilmer Shanahan      64.5  46.5       1 yes               
##  7 Dr. Alivia Wehner    70.0  48.9       1 yes               
##  8 Chaim Corkery        62.1  23.2       0 no                
##  9 Elnora Beahan-Rice   71.6  44.8       1 yes               
## 10 Ms. Devyn Brekke     67.1  63.9       1 yes               
## # … with 90 more rows
…
