Reshaping and Joining
…
# Tip 2:
## Draw a picture

---
# Pivoting longer

```r
penguins %>%
  pivot_longer(bill_length_mm:bill_depth_mm, 
               names_to = "Bill.Dimension", 
               values_to = "Size")
```

```
## # A tibble: 688 x 7
##    species island    flipper_length_mm body_mass_g sex    Bill.Dimension  Size
##    <fct>   <fct>                 <int>       <int> <fct>  <chr>          <dbl>
##  1 Adelie  Torgersen               181        3750 male   bill_length_mm  39.1
##  2 Adelie  Torgersen               181        3750 male   bill_depth_mm   18.7
##  3 Adelie  Torgersen               186        3800 female bill_length_mm  39.5
##  4 Adelie  Torgersen               186        3800 female bill_depth_mm   17.4
##  5 Adelie  Torgersen               195        3250 female bill_length_mm  40.3
##  6 Adelie  Torgersen               195        3250 female bill_depth_mm   18  
##  7 Adelie  Torgersen                NA          NA <NA>   bill_length_mm  NA  
##  8 Adelie  Torgersen                NA          NA <NA>   bill_depth_mm   NA  
##  9 Adelie  Torgersen               193        3450 female bill_length_mm  36.7
## 10 Adelie  Torgersen               193        3450 female bill_depth_mm   19.3
## # ... with 678 more rows
```
…
---
# Pivoting wider

Need row IDs to pivot wide!

```r
penguins %>%
  rowid_to_column() 
```

```
## # A tibble: 344 x 8
##    rowid species island bill_length_mm bill_depth_mm flipper_length_~
##    <int> <fct>   <fct>           <dbl>         <dbl>            <int>
##  1     1 Adelie  Torge~           39.1          18.7              181
##  2     2 Adelie  Torge~           39.5          17.4              186
##  3     3 Adelie  Torge~           40.3          18                195
##  4     4 Adelie  Torge~           NA            NA                 NA
##  5     5 Adelie  Torge~           36.7          19.3              193
##  6     6 Adelie  Torge~           39.3          20.6              190
##  7     7 Adelie  Torge~           38.9          17.8              181
##  8     8 Adelie  Torge~           39.2          19.6              195
##  9     9 Adelie  Torge~           34.1          18.1              193
## 10    10 Adelie  Torge~           42            20.2              190
## # ... with 334 more rows, and 2 more variables: body_mass_g <int>, sex <fct>
```
…
---
# Pivoting wider

```r
penguins %>%
  rowid_to_column() %>%
  pivot_wider(names_from = species, 
              values_from = body_mass_g,
              id_cols = rowid)
```

```
## # A tibble: 344 x 4
##    rowid Adelie Gentoo Chinstrap
##    <int>  <int>  <int>     <int>
##  1     1   3750     NA        NA
##  2     2   3800     NA        NA
##  3     3   3250     NA        NA
##  4     4     NA     NA        NA
##  5     5   3450     NA        NA
##  6     6   3650     NA        NA
##  7     7   3625     NA        NA
##  8     8   4675     NA        NA
##  9     9   3475     NA        NA
## 10    10   4250     NA        NA
## # ... with 334 more rows
```
…
