Functional Programming
…
---
# Using map with the pipe

The `map` functions work very nicely with `mutate()` and similar pipe-friendly functions.

<code class ='r hljs remark-code'>penguins %>%<br>&nbsp;&nbsp;mutate(<br>&nbsp;&nbsp;&nbsp;&nbsp;smaller_dimension = <span style='background-color:#ffff7f'>min(bill_length_mm, bill_depth_mm)</span><br>&nbsp;&nbsp;) %>%<br>&nbsp;&nbsp;select(bill_length_mm, bill_depth_mm, smaller_dimension)</code>

```

## # A tibble: 344 x 3
##    bill_length_mm bill_depth_mm smaller_dimension
##             <dbl>         <dbl>             <dbl>
##  1           39.1          18.7                NA
##  2           39.5          17.4                NA
##  3           40.3          18                  NA
##  4           NA            NA                  NA
##  5           36.7          19.3                NA
##  6           39.3          20.6                NA
##  7           38.9          17.8                NA
##  8           39.2          19.6                NA
##  9           34.1          18.1                NA
## 10           42            20.2                NA
## # … with 334 more rows

```

---
# Using map with the pipe

The `map` functions work very nicely with `mutate()` and similar pipe-friendly functions.

<code class ='r hljs remark-code'>penguins %>%<br>&nbsp;&nbsp;mutate(<br>&nbsp;&nbsp;&nbsp;&nbsp;smaller_dimension = min(bill_length_mm, bill_depth_mm, <span style='background-color:#ffff7f'>na.rm = TRUE</span>)<br>&nbsp;&nbsp;) %>%<br>&nbsp;&nbsp;select(bill_length_mm, bill_depth_mm, smaller_dimension)</code>

```

## # A tibble: 344 x 3
##    bill_length_mm bill_depth_mm smaller_dimension
##             <dbl>         <dbl>             <dbl>
##  1           39.1          18.7              13.1
##  2           39.5          17.4              13.1
##  3           40.3          18                13.1
##  4           NA            NA                13.1
##  5           36.7          19.3              13.1
##  6           39.3          20.6              13.1
##  7           38.9          17.8              13.1
##  8           39.2          19.6              13.1
##  9           34.1          18.1              13.1
## 10           42            20.2              13.1
## # … with 334 more rows

```

---
# Using map with the pipe

The `map` functions work very nicely with `mutate()` and similar pipe-friendly functions.

<code class ='r hljs remark-code'>penguins %>%<br>&nbsp;&nbsp;mutate(<br>&nbsp;&nbsp;&nbsp;&nbsp;smaller_dimension = <span style='background-color:#ffff7f'>map2_dbl</span>(bill_length_mm, bill_depth_mm, <span style='background-color:#ffff7f'>min</span>)<br>&nbsp;&nbsp;) %>%<br>&nbsp;&nbsp;select(bill_length_mm, bill_depth_mm, smaller_dimension)</code>

```

## # A tibble: 344 x 3
##    bill_length_mm bill_depth_mm smaller_dimension
##             <dbl>         <dbl>             <dbl>
##  1           39.1          18.7              18.7
##  2           39.5          17.4              17.4
##  3           40.3          18                18  
##  4           NA            NA                NA  
##  5           36.7          19.3              19.3
##  6           39.3          20.6              20.6
##  7           38.9          17.8              17.8
##  8           39.2          19.6              19.6
##  9           34.1          18.1              18.1
## 10           42            20.2              20.2
## # … with 334 more rows
…
